module joralmo.pro/JoralmoPro/goToRailwayTutorial

go 1.18

require (
	github.com/andybalholm/brotli v1.0.4 // indirect
	github.com/fiberweb/apikey/v2 v2.0.0 // indirect
	github.com/gofiber/fiber/v2 v2.37.1 // indirect
	github.com/klauspost/compress v1.15.10 // indirect
	github.com/valyala/bytebufferpool v1.0.0 // indirect
	github.com/valyala/fasthttp v1.40.0 // indirect
	github.com/valyala/tcplisten v1.0.0 // indirect
	golang.org/x/sys v0.0.0-20220919091848-fb04ddd9f9c8 // indirect
)
